{
  "name": "httpeventcollector",
  "description": "NiFi Application Logs",
  "fields": {
    "Host": {
      "mappedField": "host",
      "type": "datetime",
      "queryable": true
    },
    "Line Count": {
      "mappedField": "linecount",
      "type": "number",
      "queryable": true
    },
    "Source Type": {
      "mappedField": "sourcetype",
      "type": "string",
      "queryable": true
    }
  }
}